{
    "key": "group_644038b97f8ce",
    "title": "CB - CTA items",
    "fields": [
        {
            "key": "field_644038b9825c8",
            "label": "Algemeen",
            "name": "",
            "type": "tab",
            "instructions": "",
            "required": 0,
            "conditional_logic": 0,
            "wrapper": {
                "width": "",
                "class": "",
                "id": ""
            },
            "aria-label": "",
            "placement": "top",
            "endpoint": 0
        },
        {
            "key": "field_6440fcb0fc69b",
            "label": "Titel",
            "name": "title",
            "type": "text",
            "instructions": "",
            "required": 0,
            "conditional_logic": 0,
            "wrapper": {
                "width": "",
                "class": "",
                "id": ""
            },
            "default_value": "",
            "maxlength": "",
            "placeholder": "",
            "prepend": "",
            "append": ""
        },
        {
            "key": "field_6440f8ce4100b",
            "label": "",
            "name": "items",
            "type": "repeater",
            "instructions": "",
            "required": 0,
            "conditional_logic": 0,
            "wrapper": {
                "width": "",
                "class": "",
                "id": ""
            },
            "aria-label": "",
            "layout": "row",
            "pagination": 0,
            "min": 1,
            "max": 0,
            "collapsed": "field_6440f8d54100c",
            "button_label": "Nieuw item",
            "rows_per_page": 20,
            "sub_fields": [
                {
                    "key": "field_6440f8d54100c",
                    "label": "Afbeelding",
                    "name": "image",
                    "type": "image",
                    "instructions": "",
                    "required": 1,
                    "conditional_logic": 0,
                    "wrapper": {
                        "width": "",
                        "class": "",
                        "id": ""
                    },
                    "aria-label": "",
                    "return_format": "id",
                    "library": "all",
                    "min_width": "",
                    "min_height": "",
                    "min_size": "",
                    "max_width": "",
                    "max_height": "",
                    "max_size": "",
                    "mime_types": "",
                    "preview_size": "medium",
                    "parent_repeater": "field_6440f8ce4100b"
                },
                {
                    "key": "field_6440f8f44100e",
                    "label": "Link",
                    "name": "link",
                    "type": "link",
                    "instructions": "",
                    "required": 1,
                    "conditional_logic": 0,
                    "wrapper": {
                        "width": "",
                        "class": "",
                        "id": ""
                    },
                    "aria-label": "",
                    "return_format": "array",
                    "parent_repeater": "field_6440f8ce4100b"
                }
            ]
        },
        {
            "key": "field_644f7689e6ca5",
            "label": "Klik op de button 'Nieuw item' om een nieuw item toe te voegen.",
            "name": "",
            "type": "message",
            "instructions": "",
            "required": 0,
            "conditional_logic": 0,
            "wrapper": {
                "width": "",
                "class": "",
                "id": ""
            },
            "aria-label": "",
            "message": "",
            "new_lines": "wpautop",
            "esc_html": 0
        },
        {
            "key": "field_644038b98269e",
            "label": "Opties",
            "name": "",
            "type": "tab",
            "instructions": "",
            "required": 0,
            "conditional_logic": 0,
            "wrapper": {
                "width": "",
                "class": "",
                "id": ""
            },
            "aria-label": "",
            "placement": "top",
            "endpoint": 0
        },
        {
            "key": "field_644038b9826e6",
            "label": "",
            "name": "options",
            "type": "group",
            "instructions": "",
            "required": 0,
            "conditional_logic": 0,
            "wrapper": {
                "width": "",
                "class": "",
                "id": ""
            },
            "aria-label": "",
            "layout": "block",
            "sub_fields": [
                {
                    "key": "field_644038b98790c",
                    "label": "",
                    "name": "",
                    "type": "clone",
                    "instructions": "",
                    "required": 0,
                    "conditional_logic": 0,
                    "wrapper": {
                        "width": "",
                        "class": "",
                        "id": ""
                    },
                    "aria-label": "",
                    "clone": [
                        "field_635a8c26d3932",
                        "field_636e55888014c"
                    ],
                    "display": "seamless",
                    "layout": "block",
                    "prefix_label": 0,
                    "prefix_name": 0
                }
            ]
        }
    ],
    "location": [
        [
            {
                "param": "block",
                "operator": "==",
                "value": ""
            }
        ]
    ],
    "menu_order": 0,
    "position": "normal",
    "style": "default",
    "label_placement": "top",
    "instruction_placement": "label",
    "hide_on_screen": "",
    "active": false,
    "description": "",
    "show_in_rest": 0,
    "modified": 1683546039
}