{
    "key": "group_635a5f9ccbf39",
    "title": "_ CB Utilities",
    "fields": [
        {
            "key": "field_635a69ba4685b",
            "label": "Image data",
            "name": "image_data",
            "aria-label": "",
            "type": "group",
            "instructions": "",
            "required": 0,
            "conditional_logic": 0,
            "wrapper": {
                "width": "",
                "class": "",
                "id": ""
            },
            "layout": "block",
            "sub_fields": [
                {
                    "key": "field_635a69c84685c",
                    "label": "Afbeelding",
                    "name": "image",
                    "aria-label": "",
                    "type": "image",
                    "instructions": "",
                    "required": 0,
                    "conditional_logic": 0,
                    "wrapper": {
                        "width": "50",
                        "class": "",
                        "id": ""
                    },
                    "return_format": "id",
                    "library": "all",
                    "min_width": "",
                    "min_height": "",
                    "min_size": "",
                    "max_width": "",
                    "max_height": "",
                    "max_size": "",
                    "mime_types": "jpg, jpeg",
                    "allow_in_bindings": 1,
                    "preview_size": "medium"
                },
                {
                    "key": "field_63a07527bd0e4",
                    "label": "Gedrag",
                    "name": "image_behaviour",
                    "aria-label": "",
                    "type": "group",
                    "instructions": "",
                    "required": 0,
                    "conditional_logic": 0,
                    "wrapper": {
                        "width": "50",
                        "class": "",
                        "id": ""
                    },
                    "layout": "block",
                    "sub_fields": [
                        {
                            "key": "field_62bedd484f503",
                            "label": "Zichtbaarheid",
                            "name": "image_object_fit",
                            "aria-label": "",
                            "type": "select",
                            "instructions": "",
                            "required": 0,
                            "conditional_logic": 0,
                            "wrapper": {
                                "width": "",
                                "class": "",
                                "id": ""
                            },
                            "choices": {
                                "cover": "Custom",
                                "contain": "Originele verhoudingen"
                            },
                            "default_value": "cover",
                            "return_format": "value",
                            "multiple": 0,
                            "allow_null": 0,
                            "allow_in_bindings": 1,
                            "ui": 0,
                            "ajax": 0,
                            "placeholder": ""
                        },
                        {
                            "key": "field_635a73c058cb6",
                            "label": "Verhouding",
                            "name": "image_size",
                            "aria-label": "",
                            "type": "select",
                            "instructions": "",
                            "required": 0,
                            "conditional_logic": [
                                [
                                    {
                                        "field": "field_62bedd484f503",
                                        "operator": "==",
                                        "value": "cover"
                                    }
                                ]
                            ],
                            "wrapper": {
                                "width": "",
                                "class": "",
                                "id": ""
                            },
                            "choices": {
                                "169": "16:9",
                                "43": "4:3",
                                "third": "Derde schermhoogte",
                                "half": "Half schermhoogte",
                                "full": "Volle schermhoogte"
                            },
                            "default_value": 169,
                            "return_format": "value",
                            "multiple": 0,
                            "allow_null": 0,
                            "allow_in_bindings": 1,
                            "ui": 0,
                            "ajax": 0,
                            "placeholder": ""
                        }
                    ]
                },
                {
                    "key": "field_639309b70d563",
                    "label": "Video",
                    "name": "video",
                    "aria-label": "",
                    "type": "group",
                    "instructions": "",
                    "required": 0,
                    "conditional_logic": 0,
                    "wrapper": {
                        "width": "",
                        "class": "",
                        "id": ""
                    },
                    "layout": "block",
                    "sub_fields": [
                        {
                            "key": "field_639309e70d564",
                            "label": "Voeg een video toe",
                            "name": "enable_video",
                            "aria-label": "",
                            "type": "true_false",
                            "instructions": "",
                            "required": 0,
                            "conditional_logic": 0,
                            "wrapper": {
                                "width": "",
                                "class": "",
                                "id": ""
                            },
                            "message": "Toon een video in een popup na klikken op de afbeelding",
                            "default_value": 0,
                            "ui": 0,
                            "ui_on_text": "",
                            "ui_off_text": ""
                        },
                        {
                            "key": "field_63930a280d565",
                            "label": "url",
                            "name": "url",
                            "aria-label": "",
                            "type": "text",
                            "instructions": "Plaats hier de url naar de YouTube of Vimeo video",
                            "required": 1,
                            "conditional_logic": [
                                [
                                    {
                                        "field": "field_639309e70d564",
                                        "operator": "==",
                                        "value": "1"
                                    }
                                ]
                            ],
                            "wrapper": {
                                "width": "",
                                "class": "",
                                "id": ""
                            },
                            "default_value": "",
                            "maxlength": "",
                            "allow_in_bindings": 1,
                            "placeholder": "",
                            "prepend": "",
                            "append": ""
                        }
                    ]
                }
            ]
        },
        {
            "key": "field_635a8e4673c76",
            "label": "Text data",
            "name": "text_data",
            "aria-label": "",
            "type": "group",
            "instructions": "",
            "required": 0,
            "conditional_logic": 0,
            "wrapper": {
                "width": "",
                "class": "",
                "id": ""
            },
            "layout": "block",
            "sub_fields": [
                {
                    "key": "field_635a8e5373c7a",
                    "label": "Titel",
                    "name": "title",
                    "aria-label": "",
                    "type": "text",
                    "instructions": "",
                    "required": 0,
                    "conditional_logic": 0,
                    "wrapper": {
                        "width": "",
                        "class": "",
                        "id": ""
                    },
                    "default_value": "",
                    "maxlength": "",
                    "allow_in_bindings": 1,
                    "placeholder": "",
                    "prepend": "",
                    "append": ""
                },
                {
                    "key": "field_635a8e5c73c7b",
                    "label": "Tekst",
                    "name": "text",
                    "aria-label": "",
                    "type": "wysiwyg",
                    "instructions": "",
                    "required": 0,
                    "conditional_logic": 0,
                    "wrapper": {
                        "width": "",
                        "class": "",
                        "id": ""
                    },
                    "default_value": "",
                    "allow_in_bindings": 1,
                    "tabs": "all",
                    "toolbar": "full",
                    "media_upload": 1,
                    "delay": 0
                },
                {
                    "key": "field_635a5f9c4ad13",
                    "label": "Buttons",
                    "name": "buttons",
                    "aria-label": "",
                    "type": "repeater",
                    "instructions": "",
                    "required": 0,
                    "conditional_logic": 0,
                    "wrapper": {
                        "width": "",
                        "class": "",
                        "id": ""
                    },
                    "layout": "block",
                    "pagination": 0,
                    "min": 0,
                    "max": 0,
                    "collapsed": "field_635a5fba4ad14",
                    "button_label": "Voeg een button toe",
                    "rows_per_page": 20,
                    "sub_fields": [
                        {
                            "key": "field_635a5fba4ad14",
                            "label": "",
                            "name": "link",
                            "aria-label": "",
                            "type": "link",
                            "instructions": "",
                            "required": 0,
                            "conditional_logic": 0,
                            "wrapper": {
                                "width": "50",
                                "class": "",
                                "id": ""
                            },
                            "return_format": "array",
                            "parent_repeater": "field_635a5f9c4ad13"
                        },
                        {
                            "key": "field_635a5fdd4ad15",
                            "label": "",
                            "name": "type",
                            "aria-label": "",
                            "type": "select",
                            "instructions": "",
                            "required": 0,
                            "conditional_logic": 0,
                            "wrapper": {
                                "width": "50",
                                "class": "",
                                "id": ""
                            },
                            "choices": {
                                "button--default": "Default",
                                "button": "Button",
                                "button--outline": "Button outline",
                                "button--link": "Link button"
                            },
                            "default_value": "button--default",
                            "return_format": "value",
                            "multiple": 0,
                            "allow_null": 0,
                            "ui": 0,
                            "ajax": 0,
                            "placeholder": "",
                            "parent_repeater": "field_635a5f9c4ad13"
                        }
                    ]
                }
            ]
        },
        {
            "key": "field_635a8bd15b239",
            "label": "Options",
            "name": "options",
            "aria-label": "",
            "type": "group",
            "instructions": "",
            "required": 0,
            "conditional_logic": 0,
            "wrapper": {
                "width": "",
                "class": "",
                "id": ""
            },
            "layout": "block",
            "sub_fields": [
                {
                    "key": "field_63edf544459f2",
                    "label": "Achtergrond",
                    "name": "",
                    "aria-label": "",
                    "type": "tab",
                    "instructions": "",
                    "required": 0,
                    "conditional_logic": 0,
                    "wrapper": {
                        "width": "",
                        "class": "",
                        "id": ""
                    },
                    "placement": "left",
                    "endpoint": 0,
                    "selected": 0
                },
                {
                    "key": "field_635a8c26d3932",
                    "label": "Achtergrond kleur",
                    "name": "background_color",
                    "aria-label": "",
                    "type": "select",
                    "instructions": "",
                    "required": 0,
                    "conditional_logic": 0,
                    "wrapper": {
                        "width": "",
                        "class": "",
                        "id": ""
                    },
                    "choices": {
                        "default": "Standaard CB instelling",
                        "white": "<span style=\"border:1px solid gray;display:inline-block;margin-bottom:-2px;width:16px;height:16px;background:#fff;\"><\/span> Wit",
                        "gray-light": "<span style=\"border:1px solid gray;display:inline-block;margin-bottom:-2px;width:16px;height:16px;background:#f4f4f4;\"><\/span> Licht grijs",
                        "gray-dark": "<span style=\"border:1px solid darkgray;display:inline-block;margin-bottom:-2px;width:16px;height:16px;background:#333;\"><\/span> Donker grijs"
                    },
                    "default_value": "default",
                    "return_format": "value",
                    "multiple": 0,
                    "allow_null": 1,
                    "allow_in_bindings": 1,
                    "ui": 1,
                    "ajax": 1,
                    "placeholder": ""
                },
                {
                    "key": "field_63edf552459f3",
                    "label": "Container opties",
                    "name": "",
                    "aria-label": "",
                    "type": "tab",
                    "instructions": "",
                    "required": 0,
                    "conditional_logic": 0,
                    "wrapper": {
                        "width": "",
                        "class": "",
                        "id": ""
                    },
                    "placement": "left",
                    "endpoint": 0,
                    "selected": 0
                },
                {
                    "key": "field_636e55888014c",
                    "label": "Container opties",
                    "name": "container_options",
                    "aria-label": "",
                    "type": "group",
                    "instructions": "",
                    "required": 0,
                    "conditional_logic": 0,
                    "wrapper": {
                        "width": "",
                        "class": "",
                        "id": ""
                    },
                    "layout": "block",
                    "sub_fields": [
                        {
                            "key": "field_636e558880155",
                            "label": "Content max breedte",
                            "name": "width",
                            "aria-label": "",
                            "type": "select",
                            "instructions": "",
                            "required": 0,
                            "conditional_logic": 0,
                            "wrapper": {
                                "width": "33",
                                "class": "",
                                "id": ""
                            },
                            "choices": {
                                "default": "Standaard CB instelling",
                                "full": "Scherm breed",
                                "content": "Content breed",
                                "medium": "Tweederde content",
                                "small": "Helft content"
                            },
                            "default_value": "default",
                            "return_format": "value",
                            "multiple": 0,
                            "allow_null": 0,
                            "allow_in_bindings": 1,
                            "ui": 0,
                            "ajax": 0,
                            "placeholder": ""
                        },
                        {
                            "key": "field_636e558880156",
                            "label": "Container uitlijning",
                            "name": "alignment",
                            "aria-label": "",
                            "type": "select",
                            "instructions": "",
                            "required": 0,
                            "conditional_logic": 0,
                            "wrapper": {
                                "width": "33",
                                "class": "",
                                "id": ""
                            },
                            "choices": {
                                "default": "Standaard CB instelling",
                                "left": "Links",
                                "center": "Center",
                                "right": "Rechts"
                            },
                            "default_value": "default",
                            "return_format": "value",
                            "multiple": 0,
                            "allow_null": 0,
                            "allow_in_bindings": 1,
                            "ui": 0,
                            "ajax": 0,
                            "placeholder": ""
                        },
                        {
                            "key": "field_636e558880154",
                            "label": "Tekst uitlijning",
                            "name": "text_alignment",
                            "aria-label": "",
                            "type": "select",
                            "instructions": "",
                            "required": 0,
                            "conditional_logic": 0,
                            "wrapper": {
                                "width": "33",
                                "class": "",
                                "id": ""
                            },
                            "choices": {
                                "default": "Standaard CB instelling",
                                "left": "Links",
                                "center": "Center",
                                "right": "Rechts"
                            },
                            "default_value": "default",
                            "return_format": "value",
                            "multiple": 0,
                            "allow_null": 0,
                            "allow_in_bindings": 1,
                            "ui": 0,
                            "ajax": 0,
                            "placeholder": ""
                        }
                    ]
                }
            ]
        },
        {
            "key": "field_6377900f8ef26",
            "label": "Icoon",
            "name": "icon",
            "aria-label": "",
            "type": "select",
            "instructions": "",
            "required": 0,
            "conditional_logic": 0,
            "wrapper": {
                "width": "30",
                "class": "",
                "id": ""
            },
            "choices": {
                "facebook": "Facebook",
                "facebook-square": "Facebook (vierkant)",
                "facebook-round": "Facebook (rond)",
                "instagram": "Instagram",
                "x": "X (twitter)",
                "linkedin": "LinkedIn",
                "linkedin-square": "LinkedIn (vierkant)",
                "tiktok": "TikTok",
                "youtube": "YouTube",
                "youtube-square": "YouTube (vierkant)",
                "pinterest": "Pinterest",
                "telegram": "Telegram",
                "signal": "Signal",
                "whatsapp": "WhatsApp",
                "phone": "Telefoon",
                "email": "Email"
            },
            "default_value": "facebook",
            "return_format": "value",
            "multiple": 0,
            "allow_null": 0,
            "allow_in_bindings": 1,
            "ui": 0,
            "ajax": 0,
            "placeholder": ""
        }
    ],
    "location": [
        [
            {
                "param": "block",
                "operator": "==",
                "value": ""
            }
        ]
    ],
    "menu_order": 0,
    "position": "normal",
    "style": "default",
    "label_placement": "top",
    "instruction_placement": "label",
    "hide_on_screen": "",
    "active": false,
    "description": "",
    "show_in_rest": 0,
    "modified": 1736261644
}
