[
    {
        "key": "group_5e32f54a5e64d",
        "title": "Two Column Selector",
        "fields": [
            {
                "key": "field_5e32f5ea993a6",
                "label": "Kolom",
                "name": "column",
                "type": "group",
                "instructions": "",
                "required": 0,
                "conditional_logic": 0,
                "wrapper": {
                    "width": "50",
                    "class": "",
                    "id": ""
                },
                "layout": "block",
                "sub_fields": [
                    {
                        "key": "field_5e32f04c3dcb3",
                        "label": "Select",
                        "name": "select",
                        "type": "select",
                        "instructions": "",
                        "required": 1,
                        "conditional_logic": 0,
                        "wrapper": {
                            "width": "",
                            "class": "",
                            "id": ""
                        },
                        "choices": {
                            "select": "Selecteer een content blok",
                            "tekst": "Tekst"
                        },
                        "default_value": [
                            "select"
                        ],
                        "allow_null": 0,
                        "multiple": 0,
                        "ui": 0,
                        "return_format": "value",
                        "ajax": 0,
                        "placeholder": ""
                    },
                    {
                        "key": "field_5e32f64d33d82",
                        "label": "Tekst",
                        "name": "text",
                        "type": "clone",
                        "instructions": "",
                        "required": 0,
                        "conditional_logic": [
                            [
                                {
                                    "field": "field_5e32f04c3dcb3",
                                    "operator": "==",
                                    "value": "tekst"
                                }
                            ]
                        ],
                        "wrapper": {
                            "width": "",
                            "class": "",
                            "id": ""
                        },
                        "clone": [
                            "field_5e32f12ec3b6f"
                        ],
                        "display": "group",
                        "layout": "block",
                        "prefix_label": 1,
                        "prefix_name": 1
                    }
                ]
            }
        ],
        "location": [
            [
                {
                    "param": "post_type",
                    "operator": "==",
                    "value": "post"
                }
            ]
        ],
        "menu_order": 0,
        "position": "normal",
        "style": "default",
        "label_placement": "top",
        "instruction_placement": "label",
        "hide_on_screen": "",
        "active": true,
        "description": ""
    }
]